^D:\VISUALSTUDIOPROJECT\HOMEWORK15\HOMEWORK15\X64\DEBUG\HOMEWORK15.OBJ
D:\VISUALSTUDIOPROJECT\HOMEWORK15\HOMEWORK15\X64\DEBUG\HOMEWORK15.EXE
D:\VISUALSTUDIOPROJECT\HOMEWORK15\HOMEWORK15\X64\DEBUG\HOMEWORK15.ILK
D:\VISUALSTUDIOPROJECT\HOMEWORK15\HOMEWORK15\X64\DEBUG\HOMEWORK15.PDB
